[
  {
    "page": 1,
    "pages": 323,
    "per_page": 50,
    "total": 16104,
    "sourceid": "2",
    "lastupdated": "2021-02-17"
  },
  [
    {
      "indicator": {
        "id": "SP.POP.TOTL",
        "value": "Population, total"
      },
      "country": {
        "id": "1A",
        "value": "Arab World"
      },
      "countryiso3code": "ARB",
      "date": "2020",
      "value": null,
      "unit": "",
      "obs_status": "",
      "decimal": 0
    },
    {
      "indicator": {
        "id": "SP.POP.TOTL",
        "value": "Population, total"
      },
      "country": {
        "id": "1A",
        "value": "Arab World"
      },
      "countryiso3code": "ARB",
      "date": "2019",
      "value": 427870270,
      "unit": "",
      "obs_status": "",
      "decimal": 0
    },
    {
      "indicator": {
        "id": "SP.POP.TOTL",
        "value": "Population, total"
      },
      "country": {
        "id": "1A",
        "value": "Arab World"
      },
      "countryiso3code": "ARB",
      "date": "2018",
      "value": 419790591,
      "unit": "",
      "obs_status": "",
      "decimal": 0
    },
    {
      "indicator": {
        "id": "SP.POP.TOTL",
        "value": "Population, total"
      },
      "country": {
        "id": "1A",
        "value": "Arab World"
      },
      "countryiso3code": "ARB",
      "date": "2017",
      "value": 411898967,
      "unit": "",
      "obs_status": "",
      "decimal": 0
    },
    {
      "indicator": {
        "id": "SP.POP.TOTL",
        "value": "Population, total"
      },
      "country": {
        "id": "1A",
        "value": "Arab World"
      },
      "countryiso3code": "ARB",
      "date": "2016",
      "value": 404024435,
      "unit": "",
      "obs_status": "",
      "decimal": 0
    },
    {
      "indicator": {
        "id": "SP.POP.TOTL",
        "value": "Population, total"
      },
      "country": {
        "id": "1A",
        "value": "Arab World"
      },
      "countryiso3code": "ARB",
      "date": "2015",
      "value": 396028278,
      "unit": "",
      "obs_status": "",
      "decimal": 0
    },
    {
      "indicator": {
        "id": "SP.POP.TOTL",
        "value": "Population, total"
      },
      "country": {
        "id": "1A",
        "value": "Arab World"
      },
      "countryiso3code": "ARB",
      "date": "2014",
      "value": 387907747,
      "unit": "",
      "obs_status": "",
      "decimal": 0
    },
    {
      "indicator": {
        "id": "SP.POP.TOTL",
        "value": "Population, total"
      },
      "country": {
        "id": "1A",
        "value": "Arab World"
      },
      "countryiso3code": "ARB",
      "date": "2013",
      "value": 379705717,
      "unit": "",
      "obs_status": "",
      "decimal": 0
    },
    {
      "indicator": {
        "id": "SP.POP.TOTL",
        "value": "Population, total"
      },
      "country": {
        "id": "1A",
        "value": "Arab World"
      },
      "countryiso3code": "ARB",
      "date": "2012",
      "value": 371443547,
      "unit": "",
      "obs_status": "",
      "decimal": 0
    },
    {
      "indicator": {
        "id": "SP.POP.TOTL",
        "value": "Population, total"
      },
      "country": {
        "id": "1A",
        "value": "Arab World"
      },
      "countryiso3code": "ARB",
      "date": "2011",
      "value": 363158703,
      "unit": "",
      "obs_status": "",
      "decimal": 0
    },
    {
      "indicator": {
        "id": "SP.POP.TOTL",
        "value": "Population, total"
      },
      "country": {
        "id": "1A",
        "value": "Arab World"
      },
      "countryiso3code": "ARB",
      "date": "2010",
      "value": 354890042,
      "unit": "",
      "obs_status": "",
      "decimal": 0
    },
    {
      "indicator": {
        "id": "SP.POP.TOTL",
        "value": "Population, total"
      },
      "country": {
        "id": "1A",
        "value": "Arab World"
      },
      "countryiso3code": "ARB",
      "date": "2009",
      "value": 346629220,
      "unit": "",
      "obs_status": "",
      "decimal": 0
    },
    {
      "indicator": {
        "id": "SP.POP.TOTL",
        "value": "Population, total"
      },
      "country": {
        "id": "1A",
        "value": "Arab World"
      },
      "countryiso3code": "ARB",
      "date": "2008",
      "value": 338395961,
      "unit": "",
      "obs_status": "",
      "decimal": 0
    },
    {
      "indicator": {
        "id": "SP.POP.TOTL",
        "value": "Population, total"
      },
      "country": {
        "id": "1A",
        "value": "Arab World"
      },
      "countryiso3code": "ARB",
      "date": "2007",
      "value": 330290716,
      "unit": "",
      "obs_status": "",
      "decimal": 0
    },
    {
      "indicator": {
        "id": "SP.POP.TOTL",
        "value": "Population, total"
      },
      "country": {
        "id": "1A",
        "value": "Arab World"
      },
      "countryiso3code": "ARB",
      "date": "2006",
      "value": 322452754,
      "unit": "",
      "obs_status": "",
      "decimal": 0
    },
    {
      "indicator": {
        "id": "SP.POP.TOTL",
        "value": "Population, total"
      },
      "country": {
        "id": "1A",
        "value": "Arab World"
      },
      "countryiso3code": "ARB",
      "date": "2005",
      "value": 314965793,
      "unit": "",
      "obs_status": "",
      "decimal": 0
    },
    {
      "indicator": {
        "id": "SP.POP.TOTL",
        "value": "Population, total"
      },
      "country": {
        "id": "1A",
        "value": "Arab World"
      },
      "countryiso3code": "ARB",
      "date": "2004",
      "value": 307862843,
      "unit": "",
      "obs_status": "",
      "decimal": 0
    },
    {
      "indicator": {
        "id": "SP.POP.TOTL",
        "value": "Population, total"
      },
      "country": {
        "id": "1A",
        "value": "Arab World"
      },
      "countryiso3code": "ARB",
      "date": "2003",
      "value": 301113849,
      "unit": "",
      "obs_status": "",
      "decimal": 0
    },
    {
      "indicator": {
        "id": "SP.POP.TOTL",
        "value": "Population, total"
      },
      "country": {
        "id": "1A",
        "value": "Arab World"
      },
      "countryiso3code": "ARB",
      "date": "2002",
      "value": 294665185,
      "unit": "",
      "obs_status": "",
      "decimal": 0
    },
    {
      "indicator": {
        "id": "SP.POP.TOTL",
        "value": "Population, total"
      },
      "country": {
        "id": "1A",
        "value": "Arab World"
      },
      "countryiso3code": "ARB",
      "date": "2001",
      "value": 288432163,
      "unit": "",
      "obs_status": "",
      "decimal": 0
    },
    {
      "indicator": {
        "id": "SP.POP.TOTL",
        "value": "Population, total"
      },
      "country": {
        "id": "1A",
        "value": "Arab World"
      },
      "countryiso3code": "ARB",
      "date": "2000",
      "value": 282344154,
      "unit": "",
      "obs_status": "",
      "decimal": 0
    },
    {
      "indicator": {
        "id": "SP.POP.TOTL",
        "value": "Population, total"
      },
      "country": {
        "id": "1A",
        "value": "Arab World"
      },
      "countryiso3code": "ARB",
      "date": "1999",
      "value": 276393837,
      "unit": "",
      "obs_status": "",
      "decimal": 0
    },
    {
      "indicator": {
        "id": "SP.POP.TOTL",
        "value": "Population, total"
      },
      "country": {
        "id": "1A",
        "value": "Arab World"
      },
      "countryiso3code": "ARB",
      "date": "1998",
      "value": 270575803,
      "unit": "",
      "obs_status": "",
      "decimal": 0
    },
    {
      "indicator": {
        "id": "SP.POP.TOTL",
        "value": "Population, total"
      },
      "country": {
        "id": "1A",
        "value": "Arab World"
      },
      "countryiso3code": "ARB",
      "date": "1997",
      "value": 264822188,
      "unit": "",
      "obs_status": "",
      "decimal": 0
    },
    {
      "indicator": {
        "id": "SP.POP.TOTL",
        "value": "Population, total"
      },
      "country": {
        "id": "1A",
        "value": "Arab World"
      },
      "countryiso3code": "ARB",
      "date": "1996",
      "value": 259000953,
      "unit": "",
      "obs_status": "",
      "decimal": 0
    },
    {
      "indicator": {
        "id": "SP.POP.TOTL",
        "value": "Population, total"
      },
      "country": {
        "id": "1A",
        "value": "Arab World"
      },
      "countryiso3code": "ARB",
      "date": "1995",
      "value": 253107289,
      "unit": "",
      "obs_status": "",
      "decimal": 0
    },
    {
      "indicator": {
        "id": "SP.POP.TOTL",
        "value": "Population, total"
      },
      "country": {
        "id": "1A",
        "value": "Arab World"
      },
      "countryiso3code": "ARB",
      "date": "1994",
      "value": 245449409,
      "unit": "",
      "obs_status": "",
      "decimal": 0
    },
    {
      "indicator": {
        "id": "SP.POP.TOTL",
        "value": "Population, total"
      },
      "country": {
        "id": "1A",
        "value": "Arab World"
      },
      "countryiso3code": "ARB",
      "date": "1993",
      "value": 239243261,
      "unit": "",
      "obs_status": "",
      "decimal": 0
    },
    {
      "indicator": {
        "id": "SP.POP.TOTL",
        "value": "Population, total"
      },
      "country": {
        "id": "1A",
        "value": "Arab World"
      },
      "countryiso3code": "ARB",
      "date": "1992",
      "value": 232956352,
      "unit": "",
      "obs_status": "",
      "decimal": 0
    },
    {
      "indicator": {
        "id": "SP.POP.TOTL",
        "value": "Population, total"
      },
      "country": {
        "id": "1A",
        "value": "Arab World"
      },
      "countryiso3code": "ARB",
      "date": "1991",
      "value": 228731685,
      "unit": "",
      "obs_status": "",
      "decimal": 0
    },
    {
      "indicator": {
        "id": "SP.POP.TOTL",
        "value": "Population, total"
      },
      "country": {
        "id": "1A",
        "value": "Arab World"
      },
      "countryiso3code": "ARB",
      "date": "1990",
      "value": 222653373,
      "unit": "",
      "obs_status": "",
      "decimal": 0
    },
    {
      "indicator": {
        "id": "SP.POP.TOTL",
        "value": "Population, total"
      },
      "country": {
        "id": "1A",
        "value": "Arab World"
      },
      "countryiso3code": "ARB",
      "date": "1989",
      "value": 214753970,
      "unit": "",
      "obs_status": "",
      "decimal": 0
    },
    {
      "indicator": {
        "id": "SP.POP.TOTL",
        "value": "Population, total"
      },
      "country": {
        "id": "1A",
        "value": "Arab World"
      },
      "countryiso3code": "ARB",
      "date": "1988",
      "value": 208889682,
      "unit": "",
      "obs_status": "",
      "decimal": 0
    },
    {
      "indicator": {
        "id": "SP.POP.TOTL",
        "value": "Population, total"
      },
      "country": {
        "id": "1A",
        "value": "Arab World"
      },
      "countryiso3code": "ARB",
      "date": "1987",
      "value": 203084971,
      "unit": "",
      "obs_status": "",
      "decimal": 0
    },
    {
      "indicator": {
        "id": "SP.POP.TOTL",
        "value": "Population, total"
      },
      "country": {
        "id": "1A",
        "value": "Arab World"
      },
      "countryiso3code": "ARB",
      "date": "1986",
      "value": 197338142,
      "unit": "",
      "obs_status": "",
      "decimal": 0
    },
    {
      "indicator": {
        "id": "SP.POP.TOTL",
        "value": "Population, total"
      },
      "country": {
        "id": "1A",
        "value": "Arab World"
      },
      "countryiso3code": "ARB",
      "date": "1985",
      "value": 191650331,
      "unit": "",
      "obs_status": "",
      "decimal": 0
    },
    {
      "indicator": {
        "id": "SP.POP.TOTL",
        "value": "Population, total"
      },
      "country": {
        "id": "1A",
        "value": "Arab World"
      },
      "countryiso3code": "ARB",
      "date": "1984",
      "value": 186035305,
      "unit": "",
      "obs_status": "",
      "decimal": 0
    },
    {
      "indicator": {
        "id": "SP.POP.TOTL",
        "value": "Population, total"
      },
      "country": {
        "id": "1A",
        "value": "Arab World"
      },
      "countryiso3code": "ARB",
      "date": "1983",
      "value": 180505996,
      "unit": "",
      "obs_status": "",
      "decimal": 0
    },
    {
      "indicator": {
        "id": "SP.POP.TOTL",
        "value": "Population, total"
      },
      "country": {
        "id": "1A",
        "value": "Arab World"
      },
      "countryiso3code": "ARB",
      "date": "1982",
      "value": 175061792,
      "unit": "",
      "obs_status": "",
      "decimal": 0
    },
    {
      "indicator": {
        "id": "SP.POP.TOTL",
        "value": "Population, total"
      },
      "country": {
        "id": "1A",
        "value": "Arab World"
      },
      "countryiso3code": "ARB",
      "date": "1981",
      "value": 169698994,
      "unit": "",
      "obs_status": "",
      "decimal": 0
    },
    {
      "indicator": {
        "id": "SP.POP.TOTL",
        "value": "Population, total"
      },
      "country": {
        "id": "1A",
        "value": "Arab World"
      },
      "countryiso3code": "ARB",
      "date": "1980",
      "value": 164420785,
      "unit": "",
      "obs_status": "",
      "decimal": 0
    },
    {
      "indicator": {
        "id": "SP.POP.TOTL",
        "value": "Population, total"
      },
      "country": {
        "id": "1A",
        "value": "Arab World"
      },
      "countryiso3code": "ARB",
      "date": "1979",
      "value": 159218552,
      "unit": "",
      "obs_status": "",
      "decimal": 0
    },
    {
      "indicator": {
        "id": "SP.POP.TOTL",
        "value": "Population, total"
      },
      "country": {
        "id": "1A",
        "value": "Arab World"
      },
      "countryiso3code": "ARB",
      "date": "1978",
      "value": 154111175,
      "unit": "",
      "obs_status": "",
      "decimal": 0
    },
    {
      "indicator": {
        "id": "SP.POP.TOTL",
        "value": "Population, total"
      },
      "country": {
        "id": "1A",
        "value": "Arab World"
      },
      "countryiso3code": "ARB",
      "date": "1977",
      "value": 149161891,
      "unit": "",
      "obs_status": "",
      "decimal": 0
    },
    {
      "indicator": {
        "id": "SP.POP.TOTL",
        "value": "Population, total"
      },
      "country": {
        "id": "1A",
        "value": "Arab World"
      },
      "countryiso3code": "ARB",
      "date": "1976",
      "value": 144453278,
      "unit": "",
      "obs_status": "",
      "decimal": 0
    },
    {
      "indicator": {
        "id": "SP.POP.TOTL",
        "value": "Population, total"
      },
      "country": {
        "id": "1A",
        "value": "Arab World"
      },
      "countryiso3code": "ARB",
      "date": "1975",
      "value": 140040649,
      "unit": "",
      "obs_status": "",
      "decimal": 0
    },
    {
      "indicator": {
        "id": "SP.POP.TOTL",
        "value": "Population, total"
      },
      "country": {
        "id": "1A",
        "value": "Arab World"
      },
      "countryiso3code": "ARB",
      "date": "1974",
      "value": 135952252,
      "unit": "",
      "obs_status": "",
      "decimal": 0
    },
    {
      "indicator": {
        "id": "SP.POP.TOTL",
        "value": "Population, total"
      },
      "country": {
        "id": "1A",
        "value": "Arab World"
      },
      "countryiso3code": "ARB",
      "date": "1973",
      "value": 132161298,
      "unit": "",
      "obs_status": "",
      "decimal": 0
    },
    {
      "indicator": {
        "id": "SP.POP.TOTL",
        "value": "Population, total"
      },
      "country": {
        "id": "1A",
        "value": "Arab World"
      },
      "countryiso3code": "ARB",
      "date": "1972",
      "value": 128598734,
      "unit": "",
      "obs_status": "",
      "decimal": 0
    },
    {
      "indicator": {
        "id": "SP.POP.TOTL",
        "value": "Population, total"
      },
      "country": {
        "id": "1A",
        "value": "Arab World"
      },
      "countryiso3code": "ARB",
      "date": "1971",
      "value": 125164745,
      "unit": "",
      "obs_status": "",
      "decimal": 0
    }
  ]
]
